<svg width="232" height="229" viewBox="0 0 232 229" fill="none" xmlns="http://www.w3.org/2000/svg">
<path opacity="0.5" fill-rule="evenodd" clip-rule="evenodd" d="M108.559 1.87223C132.295 -5.14805 157.871 8.76738 177.607 23.8054C197.104 38.6608 208.14 61.1289 216.648 84.2301C225.502 108.274 237.6 135.114 227.223 158.531C216.987 181.632 187.425 186.281 165.767 199.055C146.82 210.23 130.508 228.378 108.559 228.519C86.5599 228.66 65.4528 216.359 50.8197 199.792C37.6944 184.933 41.8362 162.34 33.9786 144.086C24.7785 122.713 -6.39715 106.474 1.17386 84.4607C8.79616 62.2985 45.2715 71.6994 63.767 57.4747C83.0678 42.6308 85.267 8.76101 108.559 1.87223Z" fill="#8F98FF"/>
</svg>
