<svg width="413" height="409" viewBox="0 0 413 409" fill="none" xmlns="http://www.w3.org/2000/svg">
<path opacity="0.5" fill-rule="evenodd" clip-rule="evenodd" d="M219.095 3.34413C176.697 -9.19533 131.014 15.6601 95.7617 42.5207C60.9372 69.0551 41.2248 109.187 26.0288 150.45C10.2127 193.396 -11.3954 241.338 7.13864 283.164C25.4227 324.427 78.2263 332.731 116.911 355.547C150.754 375.507 179.89 407.923 219.095 408.175C258.389 408.427 296.09 386.455 322.227 356.865C345.671 330.324 338.273 289.967 352.308 257.363C368.741 219.187 424.426 190.181 410.903 150.862C397.288 111.276 332.137 128.068 299.101 102.66C264.626 76.1461 260.698 15.6487 219.095 3.34413Z" fill="#FCDDB8"/>
</svg>
